<?xml version="1.0" encoding="utf-8"?>
<!-- Generator: Adobe Illustrator 19.2.1, SVG Export Plug-In . SVG Version: 6.00 Build 0)  -->
<svg version="1.1" id="Ebene_1" xmlns="http://www.w3.org/2000/svg" xmlns:xlink="http://www.w3.org/1999/xlink" x="0px" y="0px"
	 viewBox="0 0 212.7 80" style="enable-background:new 0 0 212.7 80;" xml:space="preserve">
<style type="text/css">
	.st0{fill:#FFCC00;}
	.st1{fill:#FF0000;}
</style>
<g id="logo">
	<g>
		<polygon class="st0" points="41.3,53.8 43.3,53.8 43.3,80 38.7,80 38.7,53.8 		"/>
		<polygon class="st1" points="41.3,27.4 43.3,27.4 43.3,53.8 38.7,53.8 38.7,27.4 		"/>
		<g>
			<path d="M26.7,10.5c1.3,2.1,2.4,2.1,3.9,2.1c-1.3-1-2.2-2.4-2.6-3l-2.5-3.9c-0.3-1.2-0.9-2.4-1.8-3.1c0.3-0.1,0.5-0.3,0.8-0.4
				c-1.6,0-3.1-0.8-4.1-0.8c-0.5,0-0.9,0.4-0.9,0.8c0,0.5,0.5,1,1.4,1c0.3,0,0.5,0,0.8-0.1c0.5,0.7,0.9,1.3,0.9,2.2
				c0,1.7-2.1,3-4.1,3c-0.1,0-0.3,0-0.4,0c-0.1-0.4-0.8-1.2-0.8-2c0-1.3,0.9-2.5,0.9-3.8c0-0.8-0.4-1.3-0.5-1.6
				c0.3-0.3,0.5-0.5,0.7-0.8c-0.1,0-0.3,0.1-0.5,0.1c-1,0-1.8-0.3-2.6-0.3c-0.4,0-0.5,0.1-0.5,0.3v0.1c-0.1-0.1-0.3-0.1-0.5-0.1
				c-0.3,0-0.5-0.1-0.8-0.1c-0.9,0-1.3,0.4-1.3,0.8c0,0.3,0.3,0.8,0.5,1.2c0.4-0.1,0.8-0.3,1-0.3c0.5,0,0.9,0.5,1.2,1
				c-0.4,0-0.4,0-0.8,0c-0.9,0-1.6-0.4-1.7-0.4l0,0c0,0.1,0.3,0.5,0.8,0.7c0.7,0.3,1.7,0.4,1.8,0.4c0,0-0.1,0.4-0.4,0.4h-0.1
				c-0.7-0.1-0.9-0.3-1.8-0.5l0,0c0,0.4,0.9,1.2,1.7,1.4c-0.7,0.9-1.6,1.8-2,3.1c-0.1,0-0.3,0-0.4,0C10,8,8,6.7,8,5
				c0-0.9,0.4-1.6,0.9-2.2c0.3,0,0.5,0.1,0.8,0.1c0.9,0,1.4-0.5,1.4-1c0-0.4-0.4-0.8-0.9-0.8C9.3,1,7.7,1.8,6.2,1.8
				C6.3,2,6.6,2.1,6.9,2.2C6,3,5.4,4.2,5.1,5.4L2.6,9.3c-0.4,0.7-1.3,2-2.6,3c1.6,0,2.6,0,3.9-2.1l1.3-2C5.4,8.5,5.5,8.8,5.6,9
				l-2.5,4.2c-0.4,0.7-1.3,2-2.6,3c1.6,0,2.6,0,3.9-2.1l2.2-3.5c0.1,0.1,0.4,0.4,0.5,0.5l-3,4.9c-0.4,0.7-1.3,2-2.6,3
				c1.6,0,2.6,0,3.9-2.1l3-4.7c0.1,0.1,0.4,0.3,0.7,0.4l-3.7,5.8c-0.4,0.7-1.3,2-2.6,3c1.6,0,2.6,0,3.9-2.1l3.8-6
				c0.3,0.1,0.4,0.1,0.7,0.3l-4.2,6.7c-0.4,0.7-1.3,2-2.6,3c1.6,0,2.6,0,3.9-2.1l4.5-7.2H13c0.1,0.4,0.3,0.8,0.3,1
				c0,2.2-1.4,4.2-3.3,5.8c0.1,0,0.3,0.1,0.5,0.1c0.4,0,0.7,0,0.8,0c-0.4,0.9-1.3,2.1-1.7,2.8c-0.5-0.1-1.4-0.1-2-0.1
				s-0.7,0.4-0.7,0.7c0,0.5,0.3,0.9,0.5,1.2c0.1-0.3,0.3-0.7,1.4-0.7c0,0,0,0,0.1,0c-0.3,0.4-1.3,1.2-1.3,1.8c0,0.4,0.5,1,1,1
				c0-0.1,0-0.3,0-0.4c0-0.5,0.4-1.2,0.8-1.6c0,0.1,0,0.1,0,0.3c0,1.2,0.1,1.8,0.9,1.8c0.4,0,0.7-0.3,0.8-0.3
				c-0.5-0.5-0.5-0.8-0.5-1.6c0-0.1,0-0.4,0-0.7c0-0.1,0-0.4,0-0.5c0.3,0,0.4,0,0.7,0c0,0,1-0.1,1.3,0.5c0.3-0.3,0.8-0.7,0.8-1
				c0-0.3-0.1-0.7-0.7-0.7c-0.3,0-0.9,0.1-1.4,0.1c0.1-0.4,0.8-1.3,1.4-2.1c0.1,0.3,0.3,0.5,0.5,0.8c0-0.5,0.3-2,1-2.8
				c0.1,0.5,0.3,1.2,0.3,2.4c0,3-0.8,5.2-2.2,5.6c0.3,0.4,0.7,0.7,1,0.7c0.5,0,0.9-0.7,1.2-1.2c0.1,0.4,0.7,1.6,1,1.6
				c0.4,0,0.9-1,1-1.6c0.3,0.7,0.7,1.2,1.2,1.2c0.4,0,0.9-0.3,1-0.7c-1.6-0.4-2.2-2.6-2.2-5.6c0-1.3,0.1-1.8,0.3-2.4
				c0.7,0.9,1,2.4,1,2.8c0.3-0.3,0.4-0.5,0.5-0.8c0.5,0.7,1.3,1.7,1.4,2.1c-0.5,0-1.2-0.1-1.4-0.1c-0.5,0-0.7,0.3-0.7,0.7
				s0.4,0.8,0.8,1c0.3-0.5,1.3-0.5,1.3-0.5c0.3,0,0.3,0,0.7,0c0,0.1,0,0.4,0,0.5c0,0.3,0,0.4,0,0.7c0,0.7,0,1-0.5,1.6
				c0.1,0,0.4,0.3,0.8,0.3c0.8,0,0.9-0.5,0.9-1.8c0-0.1,0-0.1,0-0.3c0.4,0.4,0.8,1,0.8,1.6c0,0.1,0,0.3,0,0.4c0.7,0,1-0.7,1-1
				c0-0.7-0.9-1.4-1.3-1.8h0.1c1,0,1.3,0.4,1.4,0.7c0.3-0.3,0.5-0.7,0.5-1.2c0-0.3,0-0.7-0.7-0.7c-0.5,0-1.4,0.1-2,0.1
				c-0.4-0.7-1.3-1.8-1.7-2.8c0.1,0,0.4,0,0.8,0c0.1,0,0.4,0,0.5-0.1c-1.8-1.6-3.3-3.5-3.3-5.8c0-0.4,0.1-0.8,0.3-1h0.1l4.5,7.2
				c1.3,2.1,2.4,2.1,3.9,2.1c-1.3-1-2.2-2.4-2.6-3l-4.2-6.7c0.3-0.1,0.4-0.1,0.7-0.3l3.7,5.9c1.3,2.1,2.4,2.1,3.9,2.1
				c-1.3-1-2.2-2.2-2.6-3l-3.7-5.8c0.3-0.1,0.4-0.3,0.7-0.4l3,4.7c1.3,2.1,2.4,2.1,3.9,2.1c-1.3-1-2.2-2.2-2.6-3l-3-4.9
				c0.1-0.1,0.4-0.4,0.5-0.5l2.1,3.4c1.3,2.1,2.4,2.1,3.9,2.1c-1.3-1-2.2-2.2-2.6-3l-2.5-4.1c0.1-0.3,0.3-0.5,0.4-0.8L26.7,10.5z
				 M6.7,5.9c0-1.4,1-2.6,1.4-3c0.1,0,0.1,0,0.3,0C8,3.4,7.2,4.2,7.2,5.4c0,2.2,2.4,4.1,5,4.1c0,0.1,0,0.4,0,0.5c0,0.3,0,0.7,0,0.9
				C9.3,10.9,6.7,8.5,6.7,5.9z M10.8,23.7L10.8,23.7L10.8,23.7c0.9,0,1.3,0,1.6,0c0.1,0,0.3,0,0.4,0c0.3,0,0.4,0,0.4,0.3
				c0,0.1-0.3,0.5-0.4,0.7c-0.3-0.3-0.8-0.4-1.3-0.4c-0.3,0-0.7,0-0.9,0.1l0,0l0,0v0.1c0,0.1,0,0.4,0,0.7v0.3v0.4
				c0,0.7,0.1,1.2,0.4,1.4c0,0-0.1,0-0.3,0c-0.4,0-0.5-0.1-0.5-1.4c0-0.3,0-0.5,0-0.7v-0.3l0,0c-0.7,0.5-1.3,1.4-1.3,2.1
				C8.3,26.9,8,26.5,8,26.4c0-0.4,0.5-0.9,1.2-1.6l0.4-0.4l0,0H9.4c-0.1,0-0.4-0.1-0.7-0.1c-0.7,0-1.2,0.1-1.4,0.4
				c-0.1-0.1-0.1-0.5-0.1-0.7c0-0.1,0-0.3,0.1-0.3c0,0,0.1,0,0.3,0l0,0c0.8,0,1.7,0.1,2.1,0.3l0,0l0,0c0-0.1,1.6-2.1,2-3.1
				c0.1,0,0.1,0,0.3,0c0.3,0,0.4,0.3,0.5,0.5C11.5,22.3,11,23.2,10.8,23.7z M18.9,20.7c0.1,0,0.3,0,0.3,0c0.4,1,1.8,3,2,3.1l0,0l0,0
				c0.4,0,1.3-0.3,2.1-0.3l0,0c0.1,0,0.1,0,0.3,0c0,0,0.1,0.1,0.1,0.3c0,0.1-0.1,0.5-0.1,0.7c-0.3-0.3-0.8-0.4-1.4-0.4
				c-0.3,0-0.5,0-0.7,0.1l0,0l0,0l0.4,0.4c0.7,0.7,1.2,1.2,1.2,1.6c0,0.3-0.3,0.5-0.4,0.7c0-0.7-0.7-1.6-1.4-2.1l0,0V25
				c0,0.1,0,0.4,0,0.7c0,1.3-0.1,1.4-0.5,1.4c-0.1,0-0.1,0-0.3,0c0.3-0.3,0.4-0.7,0.4-1.4v-0.4V25c0-0.3,0-0.5,0-0.7v-0.1h-0.1
				c-0.3,0-0.7-0.1-0.9-0.1c-0.7,0-1,0-1.3,0.4c-0.3-0.1-0.4-0.4-0.4-0.7s0.1-0.3,0.4-0.3c0.1,0,0.3,0,0.4,0c0.3,0,0.7,0.1,1.6,0.1
				l0,0l0,0c-0.3-0.7-0.8-1.4-1.7-2.6C18.5,20.8,18.5,20.7,18.9,20.7z M15.3,3.3c-0.1-0.4-0.3-0.8-0.5-1s-0.7-0.7-1.2-0.7
				c-0.3,0-0.7,0.1-0.9,0.3c-0.1-0.1-0.3-0.5-0.3-0.8c0-0.1,0.3-0.4,0.9-0.4c1.3,0,2.1,0.7,2.1,1.6C15.6,2.6,15.5,2.9,15.3,3.3z
				 M16,1.8c0-0.3-0.1-0.5-0.3-0.8c0-0.3,0.1-0.5,0.5-0.3c-0.3,0.3,0,0.7,0,0.7s0.5-0.3,0.4-0.5C17.2,1,16.7,2,16,1.8z M18.6,10.9
				c0-0.3,0-0.7,0-0.9c0-0.1,0-0.4,0-0.5c2.6,0,4.9-2,4.9-4.1c0-1-0.7-2-1.2-2.5c0.1,0,0.1,0,0.3,0c0.4,0.4,1.4,1.6,1.4,3
				C24.1,8.5,21.5,10.9,18.6,10.9z"/>
		</g>
	</g>
</g>
<g>
	<path d="M57.5,8.6c0-0.7-0.1-1.2-0.4-1.6c-0.3-0.3-0.8-0.6-1.5-0.6h-1.3v4h1.1c0.8,0,1.2-0.1,1.6-0.3C57.2,10,57.5,9.4,57.5,8.6
		 M57.4,3.7c0-0.7-0.1-1.1-0.4-1.3C56.6,2.1,56.1,2,55.6,2h-1.2v3.6h1.3C56.7,5.6,57.4,5,57.4,3.7 M58.7,8.8c0,1.1-0.2,1.8-0.8,2.2
		c-0.4,0.4-1.2,0.6-2.4,0.6H53V1h2.8c0.9,0,1.7,0.2,2.1,0.6c0.4,0.4,0.7,1.1,0.7,2c0,0.7-0.1,1.1-0.3,1.6C58,5.6,57.6,5.8,57,6.1
		c0.7,0.1,1.1,0.4,1.5,0.9C58.6,7.4,58.7,8,58.7,8.8"/>
	<path d="M65.7,11.7h-1.1v-0.9c-0.4,0.7-1.1,1-1.9,1c-1.3,0-2-0.8-2-2.2V4.3h1.1V9c0,0.6,0,1,0.1,1.3c0.1,0.4,0.6,0.7,1,0.7
		c1,0,1.5-0.7,1.5-2.1V4.4h1.1v5.7C65.7,10.6,65.7,11.1,65.7,11.7"/>
	<path d="M72.8,11.7h-1.1V7c0-0.7,0-1.1-0.1-1.3c-0.1-0.4-0.4-0.7-1-0.7c-0.4,0-0.9,0.2-1.1,0.8c-0.2,0.4-0.3,0.9-0.3,1.5v4.5h-1.1
		V5.9c0-0.7,0-1.2-0.1-1.6h1.1v1c0.4-0.8,1-1.1,1.9-1.1c1.3,0,1.9,0.8,1.9,2.4C72.8,6.6,72.8,11.7,72.8,11.7z"/>
	<path d="M78.7,8c0-1-0.1-1.7-0.2-2.1c-0.2-0.6-0.6-0.9-1.2-0.9c-0.6,0-1,0.3-1.1,1c-0.1,0.4-0.2,1.1-0.2,2c0,1,0.1,1.7,0.2,2.1
		c0.2,0.6,0.6,0.9,1.1,0.9c0.7,0,1-0.3,1.2-0.9C78.6,9.5,78.7,8.9,78.7,8 M79.9,11.7h-1.1v-0.9c-0.4,0.7-1,1-1.7,1
		c-0.9,0-1.6-0.4-1.9-1.2C74.9,10,74.8,9.1,74.8,8s0.1-2,0.4-2.6c0.3-0.8,1-1.2,1.9-1.2c0.8,0,1.3,0.3,1.7,0.9V1.1H80v9.2
		C79.9,10.6,79.9,11,79.9,11.7"/>
	<path d="M85.6,7.3c0-0.7,0-1.2-0.1-1.5c-0.2-0.6-0.6-0.9-1.1-0.9c-0.8,0-1.2,0.4-1.3,1.5c0,0.3-0.1,0.7-0.1,0.9H85.6z M86.8,8.1H83
		v0.4c0,0.8,0.1,1.3,0.2,1.7c0.2,0.4,0.6,0.7,1.1,0.7c0.9,0,1.3-0.6,1.3-1.6h1.1c-0.1,1.7-0.9,2.5-2.5,2.5c-1,0-1.7-0.3-2.1-1
		c-0.3-0.6-0.4-1.3-0.4-2.5c0-1.3,0.1-2.2,0.3-2.8c0.3-0.9,1.1-1.3,2.2-1.3c1,0,1.8,0.3,2.1,1.1c0.2,0.4,0.3,1.3,0.3,2.5V8.1z"/>
	<path d="M92.7,9.7c0,1.5-0.8,2.1-2.4,2.1c-1.5,0-2.2-0.8-2.2-2.4h1.1c0,0.1,0,0.3,0,0.4c0.1,0.8,0.4,1.1,1.1,1.1
		c0.8,0,1.1-0.3,1.1-1.1c0-0.4-0.1-0.8-0.3-1c-0.1-0.1-0.4-0.3-1-0.7c-0.7-0.3-1.1-0.7-1.3-0.8c-0.3-0.3-0.6-0.8-0.6-1.3
		c0-0.7,0.2-1.1,0.7-1.5c0.3-0.3,0.9-0.4,1.6-0.4c0.8,0,1.3,0.2,1.7,0.6c0.3,0.3,0.4,0.9,0.6,1.7h-1.1c0-0.9-0.3-1.3-1-1.3
		c-0.3,0-0.6,0.1-0.7,0.2c-0.3,0.1-0.3,0.3-0.3,0.7c0,0.3,0.1,0.6,0.4,0.9c0.1,0.1,0.4,0.3,1,0.7c0.6,0.3,1,0.6,1.2,0.8
		C92.6,8.5,92.7,9.1,92.7,9.7"/>
	<path d="M102.6,11.7h-1.1V6.7c0-0.6,0-0.9-0.1-1.1c-0.1-0.3-0.4-0.6-0.9-0.6c-0.9,0-1.3,0.7-1.3,2v4.6H98V6.6c0-0.6,0-0.9-0.1-1.1
		c-0.1-0.3-0.4-0.6-0.9-0.6c-0.4,0-0.8,0.2-1,0.7c-0.2,0.3-0.3,0.9-0.3,1.5v4.5h-1.1V5.5c0-0.4,0-0.9-0.1-1.2h1.1v1
		c0.3-0.8,1-1.1,1.8-1.1c0.8,0,1.3,0.3,1.7,1.1c0.4-0.8,1-1.1,1.8-1.1c0.7,0,1.1,0.2,1.5,0.7c0.2,0.3,0.3,1,0.3,1.9V11.7z"/>
	<path d="M105.9,11.7h-1.1V4.3h1.1V11.7z M106.1,2.5h-1.2V1.1h1.2V2.5z"/>
	<path d="M113.1,11.7H112V7c0-0.7,0-1.1-0.1-1.3c-0.1-0.4-0.4-0.7-1-0.7c-0.4,0-0.9,0.2-1.1,0.8c-0.2,0.4-0.3,0.9-0.3,1.5v4.5h-1.1
		V5.9c0-0.7,0-1.2-0.1-1.6h1.1v1c0.4-0.8,1-1.1,1.9-1.1c1.3,0,1.9,0.8,1.9,2.4C113.1,6.6,113.1,11.7,113.1,11.7z"/>
	<path d="M116.5,11.7h-1.1V4.3h1.1V11.7z M116.5,2.5h-1.2V1.1h1.2V2.5z"/>
	<path d="M122.7,9.7c0,1.5-0.8,2.1-2.4,2.1c-1.5,0-2.2-0.8-2.2-2.4h1.1c0,0.1,0,0.3,0,0.4c0.1,0.8,0.4,1.1,1.1,1.1
		c0.8,0,1.1-0.3,1.1-1.1c0-0.4-0.1-0.8-0.3-1c-0.1-0.1-0.4-0.3-1-0.7c-0.7-0.3-1.1-0.7-1.3-0.8c-0.3-0.3-0.6-0.8-0.6-1.3
		c0-0.7,0.2-1.1,0.7-1.5c0.3-0.3,0.9-0.4,1.6-0.4c0.8,0,1.3,0.2,1.7,0.6c0.3,0.3,0.4,0.9,0.6,1.7h-1.1c0-0.9-0.3-1.3-1-1.3
		c-0.3,0-0.6,0.1-0.7,0.2c-0.2,0.2-0.2,0.4-0.2,0.8c0,0.3,0.1,0.6,0.4,0.9c0.1,0.1,0.4,0.3,1,0.7c0.6,0.3,1,0.6,1.2,0.8
		C122.6,8.5,122.7,9.1,122.7,9.7"/>
	<path d="M127.3,11.7c-0.3,0-0.7,0.1-0.9,0.1c-0.7,0-1.1-0.1-1.3-0.4c-0.2-0.2-0.3-0.7-0.3-1.3V5.2h-1.1V4.3h1.1V2.9l1.1-0.6v1.9
		h1.3v0.9h-1.3v4.6c0,0.4,0.1,0.7,0.2,0.8s0.3,0.2,0.7,0.2c0.1,0,0.2,0,0.6-0.1C127.3,10.7,127.3,11.7,127.3,11.7z"/>
	<path d="M132.4,7.3c0-0.7,0-1.2-0.1-1.5c-0.2-0.6-0.6-0.9-1.1-0.9c-0.8,0-1.2,0.4-1.3,1.5c0,0.3-0.1,0.7-0.1,0.9H132.4z M133.6,8.1
		h-3.8v0.4c0,0.8,0.1,1.3,0.2,1.7c0.2,0.4,0.6,0.7,1.1,0.7c0.9,0,1.3-0.6,1.3-1.6h1.1c-0.1,1.7-0.9,2.5-2.5,2.5c-1,0-1.7-0.3-2.1-1
		c-0.3-0.6-0.4-1.3-0.4-2.5c0-1.3,0.1-2.2,0.3-2.8c0.3-0.9,1.1-1.3,2.2-1.3c1,0,1.8,0.3,2.1,1.1c0.2,0.4,0.3,1.3,0.3,2.5V8.1z"/>
	<path d="M138.6,5.2c-0.1,0-0.2,0-0.2,0c-0.6,0-1,0.2-1.2,0.6c-0.2,0.3-0.4,0.8-0.4,1.3v4.6h-1.1V5.6c0-0.4,0-0.9,0-1.3h1.1v1
		c0.4-0.8,1-1.1,1.9-1.1C138.5,4,138.6,4.5,138.6,5.2"/>
	<path d="M141,11.7h-1.1V4.3h1.1V11.7z M141.2,2.5h-1.2V1.1h1.2V2.5z"/>
	<path d="M148.4,11.7h-1.1v-0.9c-0.4,0.7-1.1,1-1.9,1c-1.3,0-2-0.8-2-2.2V4.3h1.1V9c0,0.6,0,1,0.1,1.3c0.1,0.4,0.6,0.7,1,0.7
		c1,0,1.5-0.7,1.5-2.1V4.4h1.1v5.7C148.2,10.6,148.2,11.1,148.4,11.7"/>
	<path d="M158.6,11.7h-1.1V6.7c0-0.6,0-0.9-0.1-1.1c-0.1-0.3-0.4-0.6-0.9-0.6c-0.9,0-1.3,0.7-1.3,2v4.6H154V6.6c0-0.6,0-0.9-0.1-1.1
		c-0.1-0.3-0.4-0.6-0.9-0.6c-0.4,0-0.8,0.2-1,0.7c-0.2,0.3-0.3,0.9-0.3,1.5v4.5h-1.1V5.5c0-0.4,0-0.9-0.1-1.2h1.1v1
		c0.3-0.8,1-1.1,1.8-1.1c0.8,0,1.3,0.3,1.7,1.1c0.4-0.8,1-1.1,1.8-1.1c0.7,0,1.1,0.2,1.5,0.7c0.2,0.3,0.3,1,0.3,1.9V11.7z"/>
	<path d="M55.7,17.5c-0.1,0-0.2,0-0.4,0c-0.3,0-0.6,0.1-0.8,0.4c-0.1,0.2-0.1,0.4-0.1,0.9V20h1.2v0.9h-1.2v6.5h-1.1v-6.5h-1.1V20
		h1.1v-0.8c0-0.8,0.1-1.3,0.3-1.7c0.2-0.6,0.8-0.8,1.6-0.8c0.2,0,0.4,0,0.6,0V17.5z"/>
	<path d="M62.1,27.2H61v-0.9c-0.4,0.7-1.1,1-1.9,1c-1.3,0-2-0.8-2-2.2v-5.3h1.1v4.7c0,0.6,0,1,0.1,1.3c0.1,0.4,0.6,0.7,1,0.7
		c1,0,1.5-0.7,1.5-2.1v-4.5h1.1v5.7C62.1,26.2,62.1,26.8,62.1,27.2"/>
	<path d="M58.9,18.1h-1.1v-1.5h1.1V18.1z M61.3,18.1h-1.1v-1.5h1.1V18.1z"/>
	<path d="M67.4,20.8c-0.1,0-0.2,0-0.2,0c-0.6,0-1,0.2-1.2,0.6c-0.2,0.3-0.4,0.8-0.4,1.3v4.6h-1.1v-6.1c0-0.4,0-0.9,0-1.3h1.1v1
		c0.4-0.8,1-1.1,1.9-1.1C67.3,19.7,67.4,20,67.4,20.8"/>
	<polygon points="77.5,27.2 72.4,27.2 72.4,16.6 77.4,16.6 77.4,17.6 73.7,17.6 73.7,21.2 77.2,21.2 77.2,22.3 73.7,22.3 73.7,26.2 
		77.5,26.2 	"/>
	<path d="M82.2,20.8c-0.1,0-0.2,0-0.2,0c-0.6,0-1,0.2-1.2,0.6s-0.4,0.8-0.4,1.3v4.6h-1.1v-6.1c0-0.4,0-0.9,0-1.3h1.1v1
		c0.4-0.8,1-1.1,1.9-1.1C82.2,19.7,82.2,20,82.2,20.8"/>
	<path d="M88.6,27.2h-1.1v-4.7c0-0.7,0-1.1-0.1-1.3c-0.1-0.4-0.4-0.7-1-0.7c-0.4,0-0.9,0.2-1.1,0.8c-0.2,0.4-0.3,0.9-0.3,1.5v4.5
		h-1.1v-5.7c0-0.7,0-1.2-0.1-1.6h1.1v1c0.4-0.8,1-1.1,1.9-1.1c1.3,0,1.9,0.8,1.9,2.2C88.6,22,88.6,27.2,88.6,27.2z"/>
	<path d="M94.1,24.4v-0.9h-0.3c-1.6,0-2.4,0.6-2.4,1.6c0,0.9,0.3,1.5,1.1,1.5c0.6,0,0.9-0.2,1.2-0.7C94,25.4,94.1,25,94.1,24.4
		 M95.4,27.2h-1.1v-1c-0.4,0.7-1.1,1.1-2,1.1c-0.7,0-1.1-0.2-1.5-0.6c-0.3-0.3-0.4-0.9-0.4-1.6c0-1,0.4-1.8,1.2-2.1
		c0.6-0.2,1.3-0.3,2.6-0.3v-0.3c0-0.6,0-1-0.1-1.2c-0.1-0.3-0.4-0.6-1-0.6c-0.3,0-0.7,0.1-0.9,0.3c-0.2,0.2-0.3,0.3-0.3,0.7v0.1
		h-1.1v-0.1c0-0.7,0.2-1.1,0.8-1.5c0.4-0.3,1-0.4,1.7-0.4c0.9,0,1.5,0.2,1.8,0.6c0.3,0.3,0.4,1,0.4,1.8v2.7
		C95.4,25.7,95.4,26.5,95.4,27.2"/>
	<path d="M92.5,18.1h-1.1v-1.5h1.1V18.1z M94.8,18.1h-1.1v-1.5h1.1V18.1z"/>
	<path d="M102.5,27.2h-1.1v-4.7c0-0.7,0-1-0.1-1.3c-0.1-0.4-0.4-0.7-1-0.7c-1,0-1.5,0.7-1.5,2.1v4.5h-1.1V16.5h1.1v4
		c0.4-0.7,1.1-1,1.9-1c1.2,0,1.9,0.8,1.9,2.4v5.3H102.5z"/>
	<path d="M107.7,20.8c-0.1,0-0.2,0-0.2,0c-0.6,0-1,0.2-1.2,0.6c-0.2,0.3-0.4,0.8-0.4,1.3v4.6h-1.1v-6.1c0-0.4,0-0.9,0-1.3h1.1v1
		c0.4-0.8,1-1.1,1.9-1.1C107.6,19.7,107.7,20,107.7,20.8"/>
	<path d="M114.2,27.2H113v-0.9c-0.4,0.7-1.1,1-1.9,1c-1.3,0-2-0.8-2-2.2v-5.3h1.1v4.7c0,0.6,0,1,0.1,1.3c0.1,0.4,0.6,0.7,1,0.7
		c1,0,1.5-0.7,1.5-2.1v-4.5h1.1v5.7C114,26.2,114,26.8,114.2,27.2"/>
	<path d="M121.2,27.2h-1.1v-4.7c0-0.7,0-1.1-0.1-1.3c-0.1-0.4-0.4-0.7-1-0.7c-0.4,0-0.9,0.2-1.1,0.8c-0.2,0.4-0.3,0.9-0.3,1.5v4.5
		h-1.1v-5.7c0-0.7,0-1.2-0.1-1.6h1.1v1c0.4-0.8,1-1.1,1.9-1.1c1.3,0,1.9,0.8,1.9,2.2C121.2,22,121.2,27.2,121.2,27.2z"/>
	<path d="M127.1,23.3c0-0.8-0.1-1.5-0.2-1.8c-0.2-0.6-0.6-0.9-1.2-0.9c-0.6,0-1,0.3-1.2,1c-0.1,0.4-0.2,1.1-0.2,2
		c0,0.9,0.1,1.5,0.2,1.8c0.2,0.6,0.6,0.9,1.1,0.9c0.7,0,1.1-0.3,1.3-1.1C127.1,24.8,127.1,24.2,127.1,23.3 M128.3,19.8
		c0,0.1,0,0.3,0,0.6s0,0.4,0,0.7v6.5c0,0.9-0.2,1.6-0.7,2c-0.4,0.4-1.1,0.6-2,0.6c-1.6,0-2.2-0.7-2.4-2.1h1.2c0,0.9,0.3,1.3,1.1,1.3
		c0.6,0,1-0.2,1.2-0.7c0.1-0.3,0.2-0.8,0.2-1.5v-1c-0.4,0.6-1,0.9-1.7,0.9c-0.9,0-1.6-0.3-1.9-1.1c-0.2-0.6-0.3-1.3-0.3-2.4
		c0-1.2,0.1-2.1,0.3-2.7c0.3-0.8,1-1.2,1.9-1.2c0.8,0,1.5,0.3,1.8,1v-0.9H128.3z"/>
	<path d="M57.8,42.8h-1.1v-0.9c-0.4,0.7-1.1,1-1.9,1c-1.3,0-2-0.8-2-2.2v-5.3h1.1v4.7c0,0.6,0,1,0.1,1.3c0.1,0.4,0.6,0.7,1,0.7
		c1,0,1.5-0.7,1.5-2.1v-4.5h1.1v5.7C57.7,41.8,57.8,42.3,57.8,42.8"/>
	<path d="M64.9,42.8h-1.1v-4.7c0-0.7,0-1.1-0.1-1.3c-0.1-0.4-0.4-0.7-1-0.7c-0.4,0-0.9,0.2-1.1,0.8c-0.2,0.4-0.3,0.9-0.3,1.5v4.5
		h-1.1v-5.7c0-0.7,0-1.2-0.1-1.6h1.1v1c0.4-0.8,1-1.1,1.9-1.1c1.3,0,1.9,0.8,1.9,2.2V42.8z"/>
	<path d="M70.7,39.2c0-1-0.1-1.7-0.2-2.1c-0.2-0.6-0.6-0.9-1.2-0.9c-0.6,0-1,0.3-1.1,1c-0.1,0.4-0.2,1.1-0.2,2c0,1,0.1,1.7,0.2,2.1
		c0.2,0.6,0.6,0.9,1.1,0.9c0.7,0,1-0.3,1.2-0.9C70.7,40.8,70.7,40.1,70.7,39.2 M72,42.8h-1.1v-0.9c-0.4,0.7-1,1-1.7,1
		c-0.9,0-1.6-0.4-1.9-1.2c-0.2-0.6-0.3-1.5-0.3-2.7c0-1.1,0.1-2,0.4-2.6c0.3-0.8,1-1.2,1.9-1.2c0.8,0,1.3,0.3,1.7,0.9v-3.9h1.1v9.2
		C71.9,41.7,72,42.2,72,42.8"/>
	<polygon points="82.4,42.8 77.8,42.8 77.8,32.3 79.1,32.3 79.1,41.8 82.4,41.8 	"/>
	<path d="M87.3,39.9V39h-0.3c-1.6,0-2.4,0.6-2.4,1.6c0,0.9,0.3,1.5,1.1,1.5c0.6,0,0.9-0.2,1.2-0.7C87.2,41,87.3,40.6,87.3,39.9
		 M88.5,42.8h-1.1v-1c-0.4,0.7-1.1,1.1-2,1.1c-0.7,0-1.1-0.2-1.5-0.6c-0.3-0.3-0.4-0.9-0.4-1.6c0-1,0.4-1.8,1.2-2.1
		c0.6-0.2,1.3-0.3,2.6-0.3V38c0-0.6,0-1-0.1-1.2c-0.1-0.3-0.4-0.6-1-0.6c-0.3,0-0.7,0.1-0.9,0.3c-0.2,0.2-0.3,0.4-0.3,0.8v0.1h-1.1
		v-0.1c0-0.7,0.2-1.1,0.8-1.5c0.4-0.3,1-0.4,1.7-0.4c0.9,0,1.5,0.2,1.8,0.6c0.3,0.3,0.4,1,0.4,1.8v2.7
		C88.4,41.4,88.4,42.2,88.5,42.8"/>
	<path d="M95.5,42.8h-1.1v-4.7c0-0.7,0-1.1-0.1-1.3c-0.1-0.4-0.4-0.7-1-0.7c-0.4,0-0.9,0.2-1.1,0.8c-0.2,0.4-0.3,0.9-0.3,1.5v4.5
		h-1.1v-5.7c0-0.7,0-1.2-0.1-1.6h1.1v1c0.4-0.8,1-1.1,1.9-1.1c1.3,0,1.9,0.8,1.9,2.2C95.5,37.7,95.5,42.8,95.5,42.8z"/>
	<path d="M101.5,39.2c0-1-0.1-1.7-0.2-2.1c-0.2-0.6-0.6-0.9-1.2-0.9c-0.6,0-1,0.3-1.1,1c-0.1,0.4-0.2,1.1-0.2,2c0,1,0.1,1.7,0.2,2.1
		c0.2,0.6,0.6,0.9,1.1,0.9c0.7,0,1-0.3,1.2-0.9C101.3,40.8,101.5,40.1,101.5,39.2 M102.6,42.8h-1.1v-0.9c-0.4,0.7-1,1-1.7,1
		c-0.9,0-1.6-0.4-1.9-1.2c-0.2-0.6-0.3-1.5-0.3-2.7c0-1.1,0.1-2,0.4-2.6c0.3-0.8,1-1.2,1.9-1.2c0.8,0,1.3,0.3,1.7,0.9v-3.9h1.1v9.2
		C102.6,41.7,102.6,42.2,102.6,42.8"/>
	<polygon points="113.4,35.4 111.5,42.8 110.1,42.8 108.6,36.7 107.3,42.8 105.8,42.8 104,35.4 105.3,35.4 106.6,41.7 108.1,35.4 
		109.4,35.4 110.9,41.7 112.2,35.4 	"/>
	<path d="M116,42.8h-1.1v-7.4h1.1V42.8z M116.1,33.6h-1.2v-1.2h1.2V33.6z"/>
	<path d="M121.2,36.4c-0.1,0-0.2,0-0.2,0c-0.6,0-1,0.2-1.2,0.6s-0.4,0.8-0.4,1.3V43h-1.1v-6.1c0-0.4,0-0.9,0-1.3h1.1v1
		c0.4-0.8,1-1.1,1.9-1.1C121.2,35.3,121.2,35.6,121.2,36.4"/>
	<path d="M125.5,42.8c-0.3,0-0.7,0.1-0.9,0.1c-0.7,0-1.1-0.1-1.3-0.4c-0.2-0.2-0.3-0.7-0.3-1.3v-4.8h-1.1v-0.9h1.1v-1.3l1.1-0.6v1.9
		h1.3v0.9h-1.3v4.6c0,0.4,0.1,0.7,0.2,0.8c0.1,0.1,0.3,0.2,0.7,0.2c0.1,0,0.2,0,0.6-0.1C125.5,41.8,125.5,42.8,125.5,42.8z"/>
	<path d="M131,40.8c0,1.5-0.8,2.1-2.4,2.1c-1.5,0-2.2-0.8-2.2-2.4h1.1c0,0.1,0,0.3,0,0.4c0.1,0.8,0.4,1.1,1.1,1.1
		c0.8,0,1.1-0.3,1.1-1.1c0-0.4-0.1-0.8-0.3-1c-0.1-0.1-0.4-0.3-1-0.7c-0.7-0.3-1.1-0.7-1.3-0.8c-0.3-0.3-0.6-0.8-0.6-1.3
		c0-0.7,0.2-1.1,0.7-1.5c0.3-0.3,0.9-0.4,1.6-0.4c0.8,0,1.3,0.2,1.7,0.6c0.3,0.3,0.4,0.9,0.6,1.7h-1.1c0-0.9-0.3-1.3-1-1.3
		c-0.3,0-0.6,0.1-0.7,0.2c-0.2,0.2-0.2,0.4-0.2,0.8c0,0.3,0.1,0.6,0.4,0.9c0.1,0.1,0.4,0.3,1,0.7c0.6,0.3,1,0.6,1.2,0.8
		C130.9,39.8,131,40.3,131,40.8"/>
	<path d="M137.3,40.5c0,1.7-0.8,2.5-2.4,2.5c-1,0-1.8-0.3-2.1-1c-0.2-0.6-0.4-1.5-0.4-2.7c0-1.2,0.1-2.2,0.3-2.7
		c0.3-0.8,1.1-1.2,2.2-1.2c0.8,0,1.5,0.2,1.8,0.6c0.3,0.3,0.4,1,0.4,1.8h-1.1c0-1-0.3-1.6-1.1-1.6c-0.6,0-1,0.3-1.2,1
		c-0.1,0.3-0.1,1-0.1,2c0,1.1,0.1,1.9,0.2,2.4c0.2,0.4,0.6,0.7,1,0.7c0.4,0,0.8-0.1,1-0.4c0.1-0.2,0.2-0.7,0.2-1.1h1.2V40.5z"/>
	<path d="M144,42.8h-1.1v-4.7c0-0.7,0-1-0.1-1.3c-0.1-0.4-0.4-0.7-1-0.7c-1,0-1.5,0.7-1.5,2.1v4.5h-1.1V32.2h1.1v4
		c0.4-0.7,1.1-1,1.9-1c1.2,0,1.9,0.8,1.9,2.4v5.3H144z"/>
	<path d="M149.5,39.9V39h-0.3c-1.6,0-2.4,0.6-2.4,1.6c0,0.9,0.3,1.5,1.1,1.5c0.6,0,0.9-0.2,1.2-0.7C149.4,41,149.5,40.6,149.5,39.9
		 M150.7,42.8h-1.1v-1c-0.4,0.7-1.1,1.1-2,1.1c-0.7,0-1.1-0.2-1.5-0.6c-0.3-0.3-0.4-0.9-0.4-1.6c0-1,0.4-1.8,1.2-2.1
		c0.6-0.2,1.3-0.3,2.6-0.3V38c0-0.6,0-1-0.1-1.2c-0.1-0.3-0.4-0.6-1-0.6c-0.3,0-0.7,0.1-0.9,0.3c-0.2,0.2-0.3,0.4-0.3,0.8v0.1H146
		v-0.1c0-0.7,0.2-1.1,0.8-1.5c0.4-0.3,1-0.4,1.7-0.4c0.9,0,1.5,0.2,1.8,0.6c0.3,0.3,0.4,1,0.4,1.8v2.7
		C150.6,41.4,150.7,42.2,150.7,42.8"/>
	<path d="M155.7,33.1c-0.1,0-0.2,0-0.4,0c-0.3,0-0.6,0.1-0.8,0.4c-0.1,0.2-0.1,0.4-0.1,0.9v1.1h1.2v0.9h-1.2V43h-1.1v-6.5h-1.1v-0.9
		h1.1v-0.8c0-0.8,0.1-1.3,0.3-1.7c0.2-0.6,0.8-0.8,1.6-0.8c0.2,0,0.4,0,0.6,0V33.1z"/>
	<path d="M159.9,42.8c-0.3,0-0.7,0.1-0.9,0.1c-0.7,0-1.1-0.1-1.3-0.4c-0.2-0.2-0.3-0.7-0.3-1.3v-4.8h-1.1v-0.9h1.1v-1.3l1.1-0.6v1.9
		h1.3v0.9h-1.3v4.6c0,0.4,0.1,0.7,0.2,0.8c0.1,0.1,0.3,0.2,0.7,0.2c0.1,0,0.2,0,0.6-0.1V42.8z"/>
</g>
<polygon points="43.3,1.3 43.3,27.5 41.3,27.5 38.7,27.5 38.7,1.3 "/>
</svg>
