<?xml version="1.0" encoding="utf-8"?>
<!-- Generator: Adobe Illustrator 19.1.0, SVG Export Plug-In . SVG Version: 6.00 Build 0)  -->
<svg version="1.1" id="Ebene_1" xmlns="http://www.w3.org/2000/svg" xmlns:xlink="http://www.w3.org/1999/xlink" x="0px" y="0px"
	 viewBox="0 0 142.9 54.4" enable-background="new 0 0 142.9 54.4" xml:space="preserve">
<rect y="34.5" fill="#CFCFCF" width="142.9" height="7.8"/>
<g>
	<defs>
		<rect id="SVGID_1_" width="142.9" height="54.7"/>
	</defs>
	<clipPath id="SVGID_2_">
		<use xlink:href="#SVGID_1_"  overflow="visible"/>
	</clipPath>
	<path clip-path="url(#SVGID_2_)" fill="#1D1D1B" d="M10.8,1.4c-0.2-0.3-0.4-0.5-0.8-0.5c-0.4,0-0.7,0.3-0.8,0.6
		C9.1,2.5,11.4,2.1,11.1,4c-0.2,1.1-1,1.9-2.2,1.9c-0.8,0-1.3-0.4-1.6-1.1l0.8-0.7C8.3,4.6,8.6,5,9.1,5c0.4,0,0.8-0.4,0.9-0.8
		C10,3.6,9.5,3.4,9.1,3.2C8.4,2.9,8,2.6,8.1,1.7C8.2,0.8,9.1,0,10,0c0.5,0,1.2,0.2,1.4,0.6L10.8,1.4z"/>
	<path clip-path="url(#SVGID_2_)" fill="#1D1D1B" d="M17.7,1.1c-1,0-1.8,0.9-1.9,1.8c-0.1,0.9,0.1,1.9,1.3,1.9s1.8-1.1,2-1.9
		C19.2,2,18.8,1.1,17.7,1.1 M17,5.9c-1.7,0-2.6-1.3-2.3-3c0.3-1.7,1.6-3,3.2-3c1.7,0,2.6,1.3,2.3,3C20,4.6,18.7,5.9,17,5.9"/>
</g>
<polygon fill="#1D1D1B" points="24.3,0.2 24.1,1.1 26.2,1.1 23,5.8 27.1,5.8 27.3,4.8 24.9,4.8 28.1,0.2 "/>
<polygon fill="#1D1D1B" points="31.7,0.2 30.8,5.8 31.9,5.8 32.8,0.2 "/>
<path fill="#1D1D1B" d="M38.5,1.6L38.5,1.6l0.4,2h-1.3L38.5,1.6z M38.4,0l-3.1,5.8h1.2l0.6-1.2h2l0.2,1.2h1.2L39.2,0H38.4z"/>
<polygon fill="#1D1D1B" points="44.8,0.2 43.9,5.8 46.5,5.8 46.7,4.8 45.1,4.8 45.9,0.2 "/>
<polygon fill="#1D1D1B" points="54.2,0.2 52.4,3.9 52.3,3.9 51.6,0.2 50.4,0.2 51.6,5.9 52.3,5.9 55.4,0.2 "/>
<polygon fill="#1D1D1B" points="58.8,0.2 57.9,5.8 60.8,5.8 60.9,4.8 59.1,4.8 59.4,3.3 61.1,3.3 61.3,2.3 59.5,2.3 59.7,1.1
	61.5,1.1 61.7,0.2 "/>
<g>
	<defs>
		<rect id="SVGID_3_" width="142.9" height="54.7"/>
	</defs>
	<clipPath id="SVGID_4_">
		<use xlink:href="#SVGID_3_"  overflow="visible"/>
	</clipPath>
	<path clip-path="url(#SVGID_4_)" fill="#1D1D1B" d="M66.2,2.7h0.1c0.6,0,1.1-0.2,1.2-0.9C67.6,1.2,67.2,1,66.6,1h-0.1L66.2,2.7z
		 M68.4,5.8h-1.3l-1-2.3h0l-0.4,2.3h-1.1l0.9-5.6H67c1.1,0,1.8,0.5,1.6,1.7c-0.1,0.7-0.6,1.4-1.4,1.6L68.4,5.8z"/>
	<path clip-path="url(#SVGID_4_)" fill="#1D1D1B" d="M73.5,2.5h0.1c0.5,0,0.8-0.2,0.9-0.7C74.6,1.2,74.3,1,73.9,1h-0.1L73.5,2.5z
		 M73.1,4.9h0.2c0.6,0,1.1-0.1,1.2-0.8c0.1-0.7-0.5-0.8-1-0.8h-0.2L73.1,4.9z M72.8,0.2h1.4c1,0,1.6,0.4,1.4,1.5
		c-0.1,0.4-0.3,0.9-0.7,1.1c0.6,0.1,0.8,0.8,0.7,1.4c-0.2,1.1-1,1.6-2.1,1.6h-1.7L72.8,0.2z"/>
</g>
<path fill="#1D1D1B" d="M81.8,1.6L81.8,1.6l0.4,2h-1.3L81.8,1.6z M81.7,0l-3.1,5.8h1.2l0.6-1.2h2l0.2,1.2h1.2L82.6,0H81.7z"/>
<polygon fill="#1D1D1B" points="88.1,0 87.2,5.8 88.3,5.8 88.9,2 88.9,2 91.3,5.9 92.1,5.9 93,0.2 91.9,0.2 91.3,3.9 91.2,3.9
	88.9,0 "/>
<g>
	<defs>
		<rect id="SVGID_5_" width="142.9" height="54.7"/>
	</defs>
	<clipPath id="SVGID_6_">
		<use xlink:href="#SVGID_5_"  overflow="visible"/>
	</clipPath>
	<path clip-path="url(#SVGID_6_)" fill="#1D1D1B" d="M97.2,4.8h0.2c1.3,0,2-0.7,2.2-1.9c0.2-1.2-0.3-1.9-1.6-1.9h-0.2L97.2,4.8z
		 M96.8,0.2h1.6c1.6,0,2.5,1.2,2.3,2.8c-0.3,1.6-1.6,2.8-3.2,2.8H96L96.8,0.2z"/>
</g>
<polygon fill="#F8D200" points="137.2,48.8 136.1,54.5 141.8,54.5 142.8,48.8 "/>
<polygon fill="#E20613" points="129.8,48.8 128.7,54.5 134.4,54.5 135.5,48.8 "/>
<polygon fill="#1D1D1B" points="122.4,48.8 121.4,54.5 127.1,54.5 128.1,48.8 "/>
<polygon fill="#2A55AB" points="7.6,12.5 19.3,12.5 19.3,25.7 19.3,25.9 26.3,12.5 39.1,12.5 27.6,34.4 25.2,39 7.6,39 "/>
<polygon fill="#2A55AB" points="80.3,12.5 78.2,20.4 86,12.5 100.1,12.5 87.2,26.5 92.9,39 80,39 75.7,29.7 73.2,39 61.5,39
	68.7,12.5 "/>
<g>
	<defs>
		<rect id="SVGID_7_" width="142.9" height="54.7"/>
	</defs>
	<clipPath id="SVGID_8_">
		<use xlink:href="#SVGID_7_"  overflow="visible"/>
	</clipPath>
	<path clip-path="url(#SVGID_8_)" fill="#2A55AB" d="M50.9,28.2c-0.5,2-2.2,3.3-4,3.3s-2.7-1.3-2.2-3.3c0.5-2,2.1-3.2,3.9-3.2
		C50.5,25,51.4,26.3,50.9,28.2 M54.8,12.5l-1.1,3.9c-0.2,0.6-0.3,1.3-0.5,1.9c0,0-2.4-2.4-6.9-2.3c-5.3,0.1-11.1,5-13,12.1
		C31.4,35.4,34.3,40,40,40c4.2,0,8.7-2.9,8.7-2.9l-0.6,2h11.1l7.3-26.7L54.8,12.5z"/>
	<path clip-path="url(#SVGID_8_)" fill="#1D1D1B" d="M8.6,53.8c0.7,0,1.3-0.1,1.9-0.6c0.5-0.4,0.9-1,1-1.6c0.1-0.6,0-1.3-0.5-1.7
		c-0.4-0.5-1-0.5-1.7-0.5H8.8l-0.7,4.5H8.6z M8.3,48.8h1.1c0.8,0,1.5,0.1,2.1,0.7c0.6,0.6,0.7,1.3,0.6,2.1c-0.1,0.8-0.5,1.5-1.2,2.1
		c-0.8,0.6-1.5,0.7-2.3,0.7h-1L8.3,48.8z"/>
</g>
<polygon fill="#1D1D1B" points="13.3,48.8 12.5,54.4 15.4,54.4 15.5,53.8 13.2,53.8 13.5,51.6 15.7,51.6 15.8,51 13.6,51 13.9,49.4
	16.2,49.4 16.3,48.8 "/>
<g>
	<defs>
		<rect id="SVGID_9_" width="142.9" height="54.7"/>
	</defs>
	<clipPath id="SVGID_10_">
		<use xlink:href="#SVGID_9_"  overflow="visible"/>
	</clipPath>
	<path clip-path="url(#SVGID_10_)" fill="#1D1D1B" d="M17.4,52.1c-0.1,0.4-0.2,0.9,0,1.3c0.2,0.3,0.6,0.5,1,0.5
		c0.4,0,0.9-0.2,1.2-0.5c0.4-0.4,0.4-0.8,0.5-1.3l0.5-3.3h0.6l-0.6,3.5c-0.1,0.6-0.2,1.1-0.7,1.6c-0.5,0.4-1,0.6-1.6,0.6
		c-0.5,0-1-0.2-1.4-0.6c-0.4-0.5-0.4-1-0.3-1.6l0.6-3.5h0.6L17.4,52.1z"/>
</g>
<polygon fill="#1D1D1B" points="21.9,48.8 21.9,49.4 23.2,49.4 22.4,54.4 23,54.4 23.8,49.4 25.2,49.4 25.3,48.8 "/>
<g>
	<defs>
		<rect id="SVGID_11_" width="142.9" height="54.7"/>
	</defs>
	<clipPath id="SVGID_12_">
		<use xlink:href="#SVGID_11_"  overflow="visible"/>
	</clipPath>
	<path clip-path="url(#SVGID_12_)" fill="#1D1D1B" d="M28.3,49.9c-0.2-0.4-0.4-0.6-0.9-0.6c-0.5,0-1,0.4-1.1,0.9
		c-0.1,0.5,0.4,0.7,0.7,0.9l0.3,0.2c0.7,0.3,1.2,0.7,1.1,1.6c-0.2,1-1.1,1.7-2,1.7c-0.9,0-1.5-0.6-1.5-1.5l0.6-0.2c0,0.6,0.4,1,1,1
		s1.2-0.5,1.3-1.1c0.1-0.7-0.4-0.9-0.9-1.1l-0.3-0.1c-0.6-0.3-1.1-0.6-1-1.4c0.1-0.9,1-1.4,1.8-1.4c0.6,0,1.1,0.3,1.3,0.9L28.3,49.9
		z"/>
	<path clip-path="url(#SVGID_12_)" fill="#1D1D1B" d="M34.2,50c-0.4-0.5-0.9-0.7-1.6-0.7c-1.3,0-2.4,1.1-2.6,2.3
		c-0.2,1.2,0.7,2.3,1.9,2.3c0.6,0,1.3-0.3,1.8-0.7L33.6,54c-0.5,0.4-1.2,0.6-1.8,0.6c-1.6,0-2.7-1.3-2.5-2.9
		c0.3-1.6,1.8-2.9,3.4-2.9c0.6,0,1.2,0.2,1.6,0.6L34.2,50z"/>
</g>
<polygon fill="#1D1D1B" points="39,48.8 38.6,51.1 35.8,51.1 36.1,48.8 35.5,48.8 34.6,54.4 35.2,54.4 35.7,51.7 38.5,51.7
	38.1,54.4 38.7,54.4 39.6,48.8 "/>
<polygon fill="#1D1D1B" points="40.8,48.8 39.9,54.4 42.1,54.4 42.2,53.8 40.6,53.8 41.4,48.8 "/>
<path fill="#1D1D1B" d="M46,50l0.6,2.3h-1.9L46,50z M42.8,54.4h0.7l0.9-1.6h2.4l0.4,1.6h0.7l-1.6-5.9L42.8,54.4z"/>
<polygon fill="#1D1D1B" points="48.5,54.4 49.2,54.4 49.8,50.1 53.5,54.7 54.4,48.8 53.8,48.8 53.1,53.1 49.5,48.5 "/>
<g>
	<defs>
		<rect id="SVGID_13_" width="142.9" height="54.7"/>
	</defs>
	<clipPath id="SVGID_14_">
		<use xlink:href="#SVGID_13_"  overflow="visible"/>
	</clipPath>
	<path clip-path="url(#SVGID_14_)" fill="#1D1D1B" d="M55.9,53.8c0.7,0,1.3-0.1,1.9-0.6c0.5-0.4,0.9-1,1-1.6c0.1-0.6,0-1.3-0.5-1.7
		c-0.4-0.5-1-0.5-1.7-0.5h-0.5l-0.7,4.5H55.9z M55.6,48.8h1.1c0.8,0,1.5,0.1,2.1,0.7c0.6,0.6,0.7,1.3,0.6,2.1
		c-0.1,0.8-0.5,1.5-1.2,2.1c-0.8,0.6-1.5,0.7-2.3,0.7h-1L55.6,48.8z"/>
</g>
<g>
</g>
<g>
</g>
<g>
</g>
<g>
</g>
<g>
</g>
<g>
</g>
</svg>
